…
#>   STATE = col_character(),
#>   LOCATION_NAME = col_character(),
#>   LATITUDE = col_character(),
#>   LONGITUDE = col_character(),
#>   DEATHS = col_character(),
#>   MISSING = col_character(),
#>   INJURIES = col_character(),
#>   DAMAGE_MILLIONS_DOLLARS = col_character(),
#>   TOTAL_DEATHS = col_character(),
#>   TOTAL_MISSING = col_character()
#>   # ... with 2 more columns
#> )
#> See spec(...) for full column specifications.
y
#> # A tibble: 5,947 x 47
#>     I_D FLAG_TSUNAMI  YEAR MONTH   DAY  HOUR MINUTE SECOND FOCAL_DEPTH
#>   <int>        <chr> <int> <int> <int> <int>  <int>  <chr>       <int>
#> 1     1         <NA> -2150    NA    NA    NA     NA                 NA
#> 2     3         <NA> -2000    NA    NA    NA     NA   <NA>          18
#> 3     2          Tsu -2000    NA    NA    NA     NA   <NA>          NA
#> 4  5877          Tsu -1610    NA    NA    NA     NA   <NA>          NA
#> # ... with 5,943 more rows, and 38 more variables: EQ_PRIMARY <chr>,
#> #   EQ_MAG_MW <chr>, EQ_MAG_MS <chr>, EQ_MAG_MB <chr>, EQ_MAG_ML <dbl>,
#> #   EQ_MAG_MFA <chr>, EQ_MAG_UNK <chr>, INTENSITY <int>, COUNTRY <chr>,
#> #   STATE <chr>, LOCATION_NAME <chr>, LATITUDE <chr>, LONGITUDE <chr>,
#> #   REGION_CODE <int>, DEATHS <chr>, DEATHS_DESCRIPTION <int>,
#> #   MISSING <chr>, MISSING_DESCRIPTION <int>, INJURIES <chr>,
#> #   INJURIES_DESCRIPTION <int>, DAMAGE_MILLIONS_DOLLARS <chr>,
#> #   DAMAGE_DESCRIPTION <int>, HOUSES_DESTROYED <int>,
#> #   HOUSES_DESTROYED_DESCRIPTION <int>, HOUSES_DAMAGED <int>,
…
#### Examples:

Code:

``` r
x <- system.file("extdata", "signif.txt", package = "Eq")
x <- eq_read_data(x)
y <- eq_clean_data(x)
y[,c("COUNTRY", "LATITUDE", "LONGITUDE", "DATE", "EQ_PRIMARY", "TOTAL_DEATHS", "LOCATION_NAME", "YEAR", "MONTH", "DAY")]
```

Result:

    #> # A tibble: 5,899 x 10
    #>        COUNTRY LATITUDE LONGITUDE       DATE EQ_PRIMARY TOTAL_DEATHS
    #>          <chr>    <dbl>     <dbl>     <date>      <dbl>        <dbl>
    #> 1 TURKMENISTAN    38.00      58.3 0010-01-01        7.1           NA
    #> 2       TURKEY    37.80      27.4 0011-01-01         NA           NA
    #> 3       TURKEY    37.85      27.3 0017-01-01         NA           NA
    #> 4       GREECE    38.20      22.2 0023-01-01         NA           NA
    #> # ... with 5,895 more rows, and 4 more variables: LOCATION_NAME <chr>,
    #> #   YEAR <int>, MONTH <dbl>, DAY <dbl>
…
``` r
# Load either magrittr or dplyr package to allow use of pipe operator %>%
library(dplyr)
x <- system.file("extdata", "signif.txt", package = "Eq")
x <- x %>% 
eq_read_data() %>%
eq_clean_data()
y <- eq_location_clean(x)
y[,c("LOCATION_NAME")]
```

Result:

    #> # A tibble: 5,899 x 1
    #>                                LOCATION_NAME
    #>                                        <chr>
    #> 1                                       Nisa
    #> 2                                           
    #> 3 Izmir, Efes, Aydin, Manisa, Alasehir, Sart
    #> 4                                           
    #> # ... with 5,895 more rows
…
